[
  {
 
    "userID": 1001,
    "username": "James Gosling",
    "gender": "male",
    "email": "jamesgosling@gmail.com",
    "contacts": {
      "telephones": ["012345678", "008765432"],
      "socialMedias": ["www.facebook.com/james", "www.youtube.com/james"]
    }
  },
  {
    "userID": 1002,
    "username": "Jonnathan Joe",
    "gender": "male",
    "email": "jonnathanjoe123@gmail.com"
  },
  {
    "userID": 1003,
    "username": "lisa june",
    "gender": "female",
    "email": "lisajune333@gmail.com"
  }
]
